White: 0.368931
Black: 0.596317
0.224562,-0.112964,-0.041134,-0.00847,-0.04658,-0.006716,-0.123394,0.21428,
-0.11238,-0.115284,-0.050644,-0.084834,-0.05028,-0.076268,-0.108558,-0.124144,
-0.041946,-0.050638,-0.093184,0.04424,-0.137704,0.031922,-0.077528,-0.007676,
-0.006812,-0.08412,0.044328,0,0,-0.138696,-0.049476,-0.047414,
-0.04873,-0.048264,-0.138566,0,0,0.044424,-0.084066,-0.00725,
-0.006298,-0.077868,0.03244,-0.138214,0.045498,-0.092624,-0.04957,-0.04201,
-0.124394,-0.110134,-0.076814,-0.050846,-0.08466,-0.05149,-0.117592,-0.11308,
0.212426,-0.123584,-0.004446,-0.047848,-0.009288,-0.040108,-0.114488,0.224762,
